==4809== Callgrind, a call-graph generating cache profiler
==4809== Copyright (C) 2002-2017, and GNU GPL'd, by Josef Weidendorfer et al.
==4809== Using Valgrind-3.14.0 and LibVEX; rerun with -h for copyright info
==4809== Command: ./AANSnake
==4809== 
==4809== For interactive control, run 'callgrind_control -h'.
==4809== Warning: noted but unhandled ioctl 0x6458 with no size/direction hints.
==4809==    This could cause spurious value errors to appear.
==4809==    See README_MISSING_SYSCALL_OR_IOCTL for guidance on writing a proper wrapper.
Failed to open sound file "../../data/textures/nikomok.wav" (couldn't open stream)
==4809== brk segment overflow in thread #1: can't grow to 0x4a30000
==4809== (see section Limitations in user manual)
==4809== NOTE: further instances of this message will not be shown
Impossible d'ouvrir le fichier !
terminate called after throwing an instance of 'std::invalid_argument'
  what():  stoi
==4809== 
==4809== Process terminating with default action of signal 6 (SIGABRT): dumping core
==4809==    at 0x5E4FEAB: raise (in /usr/lib64/libc-2.27.so)
==4809==    by 0x5E3A5B8: abort (in /usr/lib64/libc-2.27.so)
==4809==    by 0x5567B3A: ??? (in /usr/lib64/libstdc++.so.6.0.25)
==4809==    by 0x556DFAB: ??? (in /usr/lib64/libstdc++.so.6.0.25)
==4809==    by 0x556E006: std::terminate() (in /usr/lib64/libstdc++.so.6.0.25)
==4809==    by 0x556E267: __cxa_throw (in /usr/lib64/libstdc++.so.6.0.25)
==4809==    by 0x5569A92: ??? (in /usr/lib64/libstdc++.so.6.0.25)
==4809==    by 0x40E84A: int __gnu_cxx::__stoa<long, int, char, int>(long (*)(char const*, char**, int), char const*, char const*, unsigned long*, int) (string_conversions.h:83)
==4809==    by 0x40E711: std::__cxx11::stoi(std::__cxx11::basic_string<char, std::char_traits<char>, std::allocator<char> > const&, unsigned long*, int) (basic_string.h:6411)
==4809==    by 0x40E50D: Jeu::writeInFile(unsigned int, difficuly) (Jeu.cpp:163)
==4809==    by 0x40B1A8: Draw::etatJeu(int&) (Draw.cpp:850)
==4809==    by 0x40B2EB: Draw::run(Jeu*) (Draw.cpp:901)
==4809== 
==4809== Events    : Ir
==4809== Collected : 981204862
==4809== 
==4809== I   refs:      981,204,862
